6720.6 9697.9 -33.0 140 0 12.0 49.0 12.5 2.5 2 1 5 5 5
6567.6 9862.3 -36.0 135 0 47.5 9.6 7.5 2.5 2 0 3 5 5
6486.9 9884.7 -37.4 227 0 9.2 25.6 7.5 0.0 0 1 3 2 2
6345.5 10027.7 -37.2 308 0 12.9 14.9 2.5 0.0 0 1 1 4 4
6543.3 9899.8 -35.3 49 0 8.5 14.7 5.0 2.5 2 1 2 1 1
6485.4 9893.9 -37.1 43 0 21.7 4.8 2.5 0.0 0 0 1 4 4
6472.0 9917.1 -36.9 310 0 9.3 15.6 7.5 2.5 2 1 3 0 0
6478.4 9899.7 -37.0 44 0 16.9 7.9 5.0 2.5 4 0 2 5 5
6350.4 9990.7 -36.9 128 0 19.7 21.4 10.0 2.5 2 1 4 2 2
6387.9 9994.6 -36.5 310 0 24.0 21.0 7.5 2.5 2 0 3 5 5
6584.0 9804.2 -36.3 46 0 8.2 17.2 2.5 2.5 2 1 1 4 4
6554.5 9839.6 -36.9 314 0 12.4 7.9 7.5 2.5 2 0 3 4 4
6537.2 9856.0 -37.2 314 0 16.2 5.3 7.5 2.5 2 0 3 1 1
6256.8 10156.9 -35.4 34 0 28.5 16.6 7.5 2.5 2 0 3 1 1
6221.9 10151.3 -35.9 124 0 18.5 47.5 12.5 2.5 2 0 5 2 2
5854.8 12489.3 9.3 15 0 15.1 23.3 10.0 2.5 2 1 4 1 1
5862.0 12529.9 11.4 16 0 11.5 17.2 5.0 2.5 2 1 2 4 4
5860.0 12509.1 10.1 16 0 19.7 22.5 17.5 0.0 0 1 7 4 4
